<?xml version="1.0" encoding="UTF-8"?>
<svg width="499px" height="285px" viewBox="0 0 499 285" version="1.1" xmlns="http://www.w3.org/2000/svg" xmlns:xlink="http://www.w3.org/1999/xlink">
  <path d="M-2.66453526e-14,35 C-0.00506788343,20.8412166 8.52093753,8.07408275 21.6011171,2.65374389 C34.6812967,-2.76659497 49.7387394,0.227715938 59.75,10.24 L249.49,199.99 L439.23,10.24 C448.072323,1.39767621 460.960291,-2.05564449 473.039129,1.18087043 C485.117968,4.41738535 494.552615,13.8520323 497.78913,25.9308709 C501.025644,38.0097095 497.572324,50.8976767 488.73,59.74 L274.24,274.24 C267.676124,280.804546 258.773196,284.492525 249.49,284.492525 C240.206804,284.492525 231.303876,280.804546 224.74,274.24 L10.25,59.74 C3.67855857,53.1850295 -0.0101375586,44.2817766 -2.66453526e-14,35 Z" fill="#261d2d" fill-rule="nonzero"></path>
</svg>
